Getting Started • QCpG
…
Extract probe outliers:

getProbeOutliers(qcmetrics)

## # A tibble: 27,500 × 4
##    Probe      BeadNr_Percentage detP_Percentage Total
##    <chr>      <lgl>             <lgl>           <lgl>
##  1 cg17837162 FALSE             TRUE            TRUE 
##  2 cg18032798 FALSE             TRUE            TRUE 
##  3 cg18077436 FALSE             TRUE            TRUE 
##  4 cg05940236 FALSE             TRUE            TRUE 
##  5 cg06855731 FALSE             TRUE            TRUE 
##  6 cg14778208 FALSE             TRUE            TRUE 
##  7 cg14972466 FALSE             TRUE            TRUE 
##  8 cg15273954 FALSE             TRUE            TRUE 
##  9 cg15662272 FALSE             TRUE            TRUE 
## 10 cg00598664 FALSE             TRUE            TRUE 
## # ℹ 27,490 more rows
…
